Fri, 26 Feb 2021 22:49:52 GMT morgan deprecated default format: use combined format at node_modules/esm/esm.js:1:278827
This is the environment:  test
Database host:  172.28.3.73
Node host:  172.28.3.11
{"error":{"code":"EADDRINUSE","errno":"EADDRINUSE","syscall":"listen","address":"::","port":9091},"level":"error","message":"uncaughtException: listen EADDRINUSE: address already in use :::9091\nError: listen EADDRINUSE: address already in use :::9091\n    at Server.setupListenHandle [as _listen2] (net.js:1280:14)\n    at listenInCluster (net.js:1328:12)\n    at Server.listen (net.js:1415:7)\n    at Function.listen (/mnt/data/SRV-CRMPILATDEV/middleware/node_modules/express/lib/application.js:618:24)\n    at Object.<anonymous> (/mnt/data/SRV-CRMPILATDEV/middleware/index.js:88:5)\n    at Generator.next (<anonymous>)\n    at startup (internal/bootstrap/node.js:283:19)\n    at bootstrapNodeJSCore (internal/bootstrap/node.js:623:3)","stack":"Error: listen EADDRINUSE: address already in use :::9091\n    at Server.setupListenHandle [as _listen2] (net.js:1280:14)\n    at listenInCluster (net.js:1328:12)\n    at Server.listen (net.js:1415:7)\n    at Function.listen (/mnt/data/SRV-CRMPILATDEV/middleware/node_modules/express/lib/application.js:618:24)\n    at Object.<anonymous> (/mnt/data/SRV-CRMPILATDEV/middleware/index.js:88:5)\n    at Generator.next (<anonymous>)\n    at startup (internal/bootstrap/node.js:283:19)\n    at bootstrapNodeJSCore (internal/bootstrap/node.js:623:3)","exception":true,"date":"Fri Feb 26 2021 18:50:15 GMT-0400 (Bolivia Time)","process":{"pid":200703,"uid":0,"gid":0,"cwd":"/mnt/data/SRV-CRMPILATDEV/middleware","execPath":"/root/.nvm/versions/node/v10.23.3/bin/node","version":"v10.23.3","argv":["/root/.nvm/versions/node/v10.23.3/bin/node","/mnt/data/SRV-CRMPILATDEV/middleware/index.js"],"memoryUsage":{"rss":367681536,"heapTotal":341106688,"heapUsed":301249208,"external":23823750}},"os":{"loadavg":[2.197265625,1.56005859375,1.40673828125],"uptime":5789892},"trace":[{"column":14,"file":"net.js","function":"Server.setupListenHandle [as _listen2]","line":1280,"method":"setupListenHandle [as _listen2]","native":false},{"column":12,"file":"net.js","function":"listenInCluster","line":1328,"method":null,"native":false},{"column":7,"file":"net.js","function":"Server.listen","line":1415,"method":"listen","native":false},{"column":24,"file":"/mnt/data/SRV-CRMPILATDEV/middleware/node_modules/express/lib/application.js","function":"Function.listen","line":618,"method":"listen","native":false},{"column":5,"file":"/mnt/data/SRV-CRMPILATDEV/middleware/index.js","function":null,"line":88,"method":null,"native":false},{"column":null,"file":null,"function":"Generator.next","line":null,"method":"next","native":false},{"column":19,"file":"internal/bootstrap/node.js","function":"startup","line":283,"method":null,"native":false},{"column":3,"file":"internal/bootstrap/node.js","function":"bootstrapNodeJSCore","line":623,"method":null,"native":false}],"service":"user-service"}
error: uncaughtException: listen EADDRINUSE: address already in use :::9091
Error: listen EADDRINUSE: address already in use :::9091
    at Server.setupListenHandle [as _listen2] (net.js:1280:14)
    at listenInCluster (net.js:1328:12)
    at Server.listen (net.js:1415:7)
    at Function.listen (/mnt/data/SRV-CRMPILATDEV/middleware/node_modules/express/lib/application.js:618:24)
    at Object.<anonymous> (/mnt/data/SRV-CRMPILATDEV/middleware/index.js:88:5)
    at Generator.next (<anonymous>)
    at startup (internal/bootstrap/node.js:283:19)
    at bootstrapNodeJSCore (internal/bootstrap/node.js:623:3)
Error: listen EADDRINUSE: address already in use :::9091
    at Server.setupListenHandle [as _listen2] (net.js:1280:14)
    at listenInCluster (net.js:1328:12)
    at Server.listen (net.js:1415:7)
    at Function.listen (/mnt/data/SRV-CRMPILATDEV/middleware/node_modules/express/lib/application.js:618:24)
    at Object.<anonymous> (/mnt/data/SRV-CRMPILATDEV/middleware/index.js:88:5)
    at Generator.next (<anonymous>)
    at startup (internal/bootstrap/node.js:283:19)
    at bootstrapNodeJSCore (internal/bootstrap/node.js:623:3)
error: uncaughtException: listen EADDRINUSE: address already in use :::9091
Error: listen EADDRINUSE: address already in use :::9091
    at Server.setupListenHandle [as _listen2] (net.js:1280:14)
    at listenInCluster (net.js:1328:12)
    at Server.listen (net.js:1415:7)
    at Function.listen (/mnt/data/SRV-CRMPILATDEV/middleware/node_modules/express/lib/application.js:618:24)
    at Object.<anonymous> (/mnt/data/SRV-CRMPILATDEV/middleware/index.js:88:5)
    at Generator.next (<anonymous>)
    at startup (internal/bootstrap/node.js:283:19)
    at bootstrapNodeJSCore (internal/bootstrap/node.js:623:3) {"error":{"code":"EADDRINUSE","errno":"EADDRINUSE","syscall":"listen","address":"::","port":9091},"stack":"Error: listen EADDRINUSE: address already in use :::9091\n    at Server.setupListenHandle [as _listen2] (net.js:1280:14)\n    at listenInCluster (net.js:1328:12)\n    at Server.listen (net.js:1415:7)\n    at Function.listen (/mnt/data/SRV-CRMPILATDEV/middleware/node_modules/express/lib/application.js:618:24)\n    at Object.<anonymous> (/mnt/data/SRV-CRMPILATDEV/middleware/index.js:88:5)\n    at Generator.next (<anonymous>)\n    at startup (internal/bootstrap/node.js:283:19)\n    at bootstrapNodeJSCore (internal/bootstrap/node.js:623:3)","exception":true,"date":"Fri Feb 26 2021 18:50:15 GMT-0400 (Bolivia Time)","process":{"pid":200703,"uid":0,"gid":0,"cwd":"/mnt/data/SRV-CRMPILATDEV/middleware","execPath":"/root/.nvm/versions/node/v10.23.3/bin/node","version":"v10.23.3","argv":["/root/.nvm/versions/node/v10.23.3/bin/node","/mnt/data/SRV-CRMPILATDEV/middleware/index.js"],"memoryUsage":{"rss":367681536,"heapTotal":341106688,"heapUsed":301385312,"external":23831942}},"os":{"loadavg":[2.197265625,1.56005859375,1.40673828125],"uptime":5789892},"trace":[{"column":14,"file":"net.js","function":"Server.setupListenHandle [as _listen2]","line":1280,"method":"setupListenHandle [as _listen2]","native":false},{"column":12,"file":"net.js","function":"listenInCluster","line":1328,"method":null,"native":false},{"column":7,"file":"net.js","function":"Server.listen","line":1415,"method":"listen","native":false},{"column":24,"file":"/mnt/data/SRV-CRMPILATDEV/middleware/node_modules/express/lib/application.js","function":"Function.listen","line":618,"method":"listen","native":false},{"column":5,"file":"/mnt/data/SRV-CRMPILATDEV/middleware/index.js","function":null,"line":88,"method":null,"native":false},{"column":null,"file":null,"function":"Generator.next","line":null,"method":"next","native":false},{"column":19,"file":"internal/bootstrap/node.js","function":"startup","line":283,"method":null,"native":false},{"column":3,"file":"internal/bootstrap/node.js","function":"bootstrapNodeJSCore","line":623,"method":null,"native":false}]}
error: uncaughtException: listen EADDRINUSE: address already in use :::9091
Error: listen EADDRINUSE: address already in use :::9091
    at Server.setupListenHandle [as _listen2] (net.js:1280:14)
    at listenInCluster (net.js:1328:12)
    at Server.listen (net.js:1415:7)
    at Function.listen (/mnt/data/SRV-CRMPILATDEV/middleware/node_modules/express/lib/application.js:618:24)
    at Object.<anonymous> (/mnt/data/SRV-CRMPILATDEV/middleware/index.js:88:5)
    at Generator.next (<anonymous>)
    at startup (internal/bootstrap/node.js:283:19)
    at bootstrapNodeJSCore (internal/bootstrap/node.js:623:3) {"error":{"code":"EADDRINUSE","errno":"EADDRINUSE","syscall":"listen","address":"::","port":9091},"stack":"Error: listen EADDRINUSE: address already in use :::9091\n    at Server.setupListenHandle [as _listen2] (net.js:1280:14)\n    at listenInCluster (net.js:1328:12)\n    at Server.listen (net.js:1415:7)\n    at Function.listen (/mnt/data/SRV-CRMPILATDEV/middleware/node_modules/express/lib/application.js:618:24)\n    at Object.<anonymous> (/mnt/data/SRV-CRMPILATDEV/middleware/index.js:88:5)\n    at Generator.next (<anonymous>)\n    at startup (internal/bootstrap/node.js:283:19)\n    at bootstrapNodeJSCore (internal/bootstrap/node.js:623:3)","exception":true,"date":"Fri Feb 26 2021 18:50:15 GMT-0400 (Bolivia Time)","process":{"pid":200703,"uid":0,"gid":0,"cwd":"/mnt/data/SRV-CRMPILATDEV/middleware","execPath":"/root/.nvm/versions/node/v10.23.3/bin/node","version":"v10.23.3","argv":["/root/.nvm/versions/node/v10.23.3/bin/node","/mnt/data/SRV-CRMPILATDEV/middleware/index.js"],"memoryUsage":{"rss":367681536,"heapTotal":341106688,"heapUsed":301441184,"external":23840134}},"os":{"loadavg":[2.197265625,1.56005859375,1.40673828125],"uptime":5789892},"trace":[{"column":14,"file":"net.js","function":"Server.setupListenHandle [as _listen2]","line":1280,"method":"setupListenHandle [as _listen2]","native":false},{"column":12,"file":"net.js","function":"listenInCluster","line":1328,"method":null,"native":false},{"column":7,"file":"net.js","function":"Server.listen","line":1415,"method":"listen","native":false},{"column":24,"file":"/mnt/data/SRV-CRMPILATDEV/middleware/node_modules/express/lib/application.js","function":"Function.listen","line":618,"method":"listen","native":false},{"column":5,"file":"/mnt/data/SRV-CRMPILATDEV/middleware/index.js","function":null,"line":88,"method":null,"native":false},{"column":null,"file":null,"function":"Generator.next","line":null,"method":"next","native":false},{"column":19,"file":"internal/bootstrap/node.js","function":"startup","line":283,"method":null,"native":false},{"column":3,"file":"internal/bootstrap/node.js","function":"bootstrapNodeJSCore","line":623,"method":null,"native":false}]}
Fri, 26 Feb 2021 22:50:37 GMT morgan deprecated default format: use combined format at node_modules/esm/esm.js:1:278827
This is the environment:  test
Database host:  172.28.3.73
Node host:  172.28.3.11
./myscript.sh: line 2: 200703 Hangup                  node -r esm index.js
Fri, 26 Feb 2021 22:55:19 GMT morgan deprecated default format: use combined format at node_modules/esm/esm.js:1:278827
This is the environment:  test
Database host:  172.28.3.73
Node host:  172.28.3.11
{"error":{"code":"EADDRINUSE","errno":"EADDRINUSE","syscall":"listen","address":"::","port":9091},"level":"error","message":"uncaughtException: listen EADDRINUSE: address already in use :::9091\nError: listen EADDRINUSE: address already in use :::9091\n    at Server.setupListenHandle [as _listen2] (net.js:1280:14)\n    at listenInCluster (net.js:1328:12)\n    at Server.listen (net.js:1415:7)\n    at Function.listen (/mnt/data/SRV-CRMPILATDEV/middleware/node_modules/express/lib/application.js:618:24)\n    at Object.<anonymous> (/mnt/data/SRV-CRMPILATDEV/middleware/index.js:88:5)\n    at Generator.next (<anonymous>)\n    at startup (internal/bootstrap/node.js:283:19)\n    at bootstrapNodeJSCore (internal/bootstrap/node.js:623:3)","stack":"Error: listen EADDRINUSE: address already in use :::9091\n    at Server.setupListenHandle [as _listen2] (net.js:1280:14)\n    at listenInCluster (net.js:1328:12)\n    at Server.listen (net.js:1415:7)\n    at Function.listen (/mnt/data/SRV-CRMPILATDEV/middleware/node_modules/express/lib/application.js:618:24)\n    at Object.<anonymous> (/mnt/data/SRV-CRMPILATDEV/middleware/index.js:88:5)\n    at Generator.next (<anonymous>)\n    at startup (internal/bootstrap/node.js:283:19)\n    at bootstrapNodeJSCore (internal/bootstrap/node.js:623:3)","exception":true,"date":"Fri Feb 26 2021 18:55:38 GMT-0400 (Bolivia Time)","process":{"pid":201875,"uid":0,"gid":0,"cwd":"/mnt/data/SRV-CRMPILATDEV/middleware","execPath":"/root/.nvm/versions/node/v10.23.3/bin/node","version":"v10.23.3","argv":["/root/.nvm/versions/node/v10.23.3/bin/node","/mnt/data/SRV-CRMPILATDEV/middleware/index.js"],"memoryUsage":{"rss":366891008,"heapTotal":341106688,"heapUsed":305991152,"external":23864967}},"os":{"loadavg":[3.404296875,6.48193359375,4.1142578125],"uptime":5790215},"trace":[{"column":14,"file":"net.js","function":"Server.setupListenHandle [as _listen2]","line":1280,"method":"setupListenHandle [as _listen2]","native":false},{"column":12,"file":"net.js","function":"listenInCluster","line":1328,"method":null,"native":false},{"column":7,"file":"net.js","function":"Server.listen","line":1415,"method":"listen","native":false},{"column":24,"file":"/mnt/data/SRV-CRMPILATDEV/middleware/node_modules/express/lib/application.js","function":"Function.listen","line":618,"method":"listen","native":false},{"column":5,"file":"/mnt/data/SRV-CRMPILATDEV/middleware/index.js","function":null,"line":88,"method":null,"native":false},{"column":null,"file":null,"function":"Generator.next","line":null,"method":"next","native":false},{"column":19,"file":"internal/bootstrap/node.js","function":"startup","line":283,"method":null,"native":false},{"column":3,"file":"internal/bootstrap/node.js","function":"bootstrapNodeJSCore","line":623,"method":null,"native":false}],"service":"user-service"}
error: uncaughtException: listen EADDRINUSE: address already in use :::9091
Error: listen EADDRINUSE: address already in use :::9091
    at Server.setupListenHandle [as _listen2] (net.js:1280:14)
    at listenInCluster (net.js:1328:12)
    at Server.listen (net.js:1415:7)
    at Function.listen (/mnt/data/SRV-CRMPILATDEV/middleware/node_modules/express/lib/application.js:618:24)
    at Object.<anonymous> (/mnt/data/SRV-CRMPILATDEV/middleware/index.js:88:5)
    at Generator.next (<anonymous>)
    at startup (internal/bootstrap/node.js:283:19)
    at bootstrapNodeJSCore (internal/bootstrap/node.js:623:3)
Error: listen EADDRINUSE: address already in use :::9091
    at Server.setupListenHandle [as _listen2] (net.js:1280:14)
    at listenInCluster (net.js:1328:12)
    at Server.listen (net.js:1415:7)
    at Function.listen (/mnt/data/SRV-CRMPILATDEV/middleware/node_modules/express/lib/application.js:618:24)
    at Object.<anonymous> (/mnt/data/SRV-CRMPILATDEV/middleware/index.js:88:5)
    at Generator.next (<anonymous>)
    at startup (internal/bootstrap/node.js:283:19)
    at bootstrapNodeJSCore (internal/bootstrap/node.js:623:3)
error: uncaughtException: listen EADDRINUSE: address already in use :::9091
Error: listen EADDRINUSE: address already in use :::9091
    at Server.setupListenHandle [as _listen2] (net.js:1280:14)
    at listenInCluster (net.js:1328:12)
    at Server.listen (net.js:1415:7)
    at Function.listen (/mnt/data/SRV-CRMPILATDEV/middleware/node_modules/express/lib/application.js:618:24)
    at Object.<anonymous> (/mnt/data/SRV-CRMPILATDEV/middleware/index.js:88:5)
    at Generator.next (<anonymous>)
    at startup (internal/bootstrap/node.js:283:19)
    at bootstrapNodeJSCore (internal/bootstrap/node.js:623:3) {"error":{"code":"EADDRINUSE","errno":"EADDRINUSE","syscall":"listen","address":"::","port":9091},"stack":"Error: listen EADDRINUSE: address already in use :::9091\n    at Server.setupListenHandle [as _listen2] (net.js:1280:14)\n    at listenInCluster (net.js:1328:12)\n    at Server.listen (net.js:1415:7)\n    at Function.listen (/mnt/data/SRV-CRMPILATDEV/middleware/node_modules/express/lib/application.js:618:24)\n    at Object.<anonymous> (/mnt/data/SRV-CRMPILATDEV/middleware/index.js:88:5)\n    at Generator.next (<anonymous>)\n    at startup (internal/bootstrap/node.js:283:19)\n    at bootstrapNodeJSCore (internal/bootstrap/node.js:623:3)","exception":true,"date":"Fri Feb 26 2021 18:55:38 GMT-0400 (Bolivia Time)","process":{"pid":201875,"uid":0,"gid":0,"cwd":"/mnt/data/SRV-CRMPILATDEV/middleware","execPath":"/root/.nvm/versions/node/v10.23.3/bin/node","version":"v10.23.3","argv":["/root/.nvm/versions/node/v10.23.3/bin/node","/mnt/data/SRV-CRMPILATDEV/middleware/index.js"],"memoryUsage":{"rss":367120384,"heapTotal":341106688,"heapUsed":306127256,"external":23873159}},"os":{"loadavg":[3.404296875,6.48193359375,4.1142578125],"uptime":5790215},"trace":[{"column":14,"file":"net.js","function":"Server.setupListenHandle [as _listen2]","line":1280,"method":"setupListenHandle [as _listen2]","native":false},{"column":12,"file":"net.js","function":"listenInCluster","line":1328,"method":null,"native":false},{"column":7,"file":"net.js","function":"Server.listen","line":1415,"method":"listen","native":false},{"column":24,"file":"/mnt/data/SRV-CRMPILATDEV/middleware/node_modules/express/lib/application.js","function":"Function.listen","line":618,"method":"listen","native":false},{"column":5,"file":"/mnt/data/SRV-CRMPILATDEV/middleware/index.js","function":null,"line":88,"method":null,"native":false},{"column":null,"file":null,"function":"Generator.next","line":null,"method":"next","native":false},{"column":19,"file":"internal/bootstrap/node.js","function":"startup","line":283,"method":null,"native":false},{"column":3,"file":"internal/bootstrap/node.js","function":"bootstrapNodeJSCore","line":623,"method":null,"native":false}]}
error: uncaughtException: listen EADDRINUSE: address already in use :::9091
Error: listen EADDRINUSE: address already in use :::9091
    at Server.setupListenHandle [as _listen2] (net.js:1280:14)
    at listenInCluster (net.js:1328:12)
    at Server.listen (net.js:1415:7)
    at Function.listen (/mnt/data/SRV-CRMPILATDEV/middleware/node_modules/express/lib/application.js:618:24)
    at Object.<anonymous> (/mnt/data/SRV-CRMPILATDEV/middleware/index.js:88:5)
    at Generator.next (<anonymous>)
    at startup (internal/bootstrap/node.js:283:19)
    at bootstrapNodeJSCore (internal/bootstrap/node.js:623:3) {"error":{"code":"EADDRINUSE","errno":"EADDRINUSE","syscall":"listen","address":"::","port":9091},"stack":"Error: listen EADDRINUSE: address already in use :::9091\n    at Server.setupListenHandle [as _listen2] (net.js:1280:14)\n    at listenInCluster (net.js:1328:12)\n    at Server.listen (net.js:1415:7)\n    at Function.listen (/mnt/data/SRV-CRMPILATDEV/middleware/node_modules/express/lib/application.js:618:24)\n    at Object.<anonymous> (/mnt/data/SRV-CRMPILATDEV/middleware/index.js:88:5)\n    at Generator.next (<anonymous>)\n    at startup (internal/bootstrap/node.js:283:19)\n    at bootstrapNodeJSCore (internal/bootstrap/node.js:623:3)","exception":true,"date":"Fri Feb 26 2021 18:55:38 GMT-0400 (Bolivia Time)","process":{"pid":201875,"uid":0,"gid":0,"cwd":"/mnt/data/SRV-CRMPILATDEV/middleware","execPath":"/root/.nvm/versions/node/v10.23.3/bin/node","version":"v10.23.3","argv":["/root/.nvm/versions/node/v10.23.3/bin/node","/mnt/data/SRV-CRMPILATDEV/middleware/index.js"],"memoryUsage":{"rss":367120384,"heapTotal":341106688,"heapUsed":306183128,"external":23881351}},"os":{"loadavg":[3.404296875,6.48193359375,4.1142578125],"uptime":5790215},"trace":[{"column":14,"file":"net.js","function":"Server.setupListenHandle [as _listen2]","line":1280,"method":"setupListenHandle [as _listen2]","native":false},{"column":12,"file":"net.js","function":"listenInCluster","line":1328,"method":null,"native":false},{"column":7,"file":"net.js","function":"Server.listen","line":1415,"method":"listen","native":false},{"column":24,"file":"/mnt/data/SRV-CRMPILATDEV/middleware/node_modules/express/lib/application.js","function":"Function.listen","line":618,"method":"listen","native":false},{"column":5,"file":"/mnt/data/SRV-CRMPILATDEV/middleware/index.js","function":null,"line":88,"method":null,"native":false},{"column":null,"file":null,"function":"Generator.next","line":null,"method":"next","native":false},{"column":19,"file":"internal/bootstrap/node.js","function":"startup","line":283,"method":null,"native":false},{"column":3,"file":"internal/bootstrap/node.js","function":"bootstrapNodeJSCore","line":623,"method":null,"native":false}]}
Sat, 27 Feb 2021 00:12:38 GMT morgan deprecated default format: use combined format at node_modules/esm/esm.js:1:278827
This is the environment:  test
Database host:  172.28.3.73
Node host:  172.28.3.11
http://172.28.3.11:9091
